{
	"csharp.debug.console": "integratedTerminal",
	"editor.colorDecorators": false,
	"editor.fontFamily": "JetBrainsMono Nerd Font Mono",
	"editor.fontLigatures": true,
	"editor.gotoLocation.multipleDeclarations": "goto",
	"editor.gotoLocation.multipleDefinitions": "goto",
	"editor.gotoLocation.multipleImplementations": "goto",
	"editor.gotoLocation.multipleReferences": "goto",
	"editor.gotoLocation.multipleTypeDefinitions": "goto",
	"editor.hideCursorInOverviewRuler": true,
	"editor.hover.delay": 1500,
	"editor.hover.enabled": true,
	"editor.lightbulb.enabled": "off",
	"editor.matchBrackets": "never",
	"editor.minimap.enabled": false,
	"editor.occurrencesHighlight": "off",
	"editor.overviewRulerBorder": false,
	"editor.renderControlCharacters": false,
	"editor.renderLineHighlight": "none",
	"editor.selectionHighlight": false,
	"git.decorations.enabled": false,
	"problems.decorations.enabled": false,
	"scm.diffDecorations": "none",
	"terminal.external.linuxExec": "kitty",
	"terminal.integrated.cursorStyle": "line",
	"vim.cursorStylePerMode.insert": "line",
	"vim.cursorStylePerMode.normal": "block",
	"vim.cursorStylePerMode.replace": "underline",
	"vim.cursorStylePerMode.visual": "block-outline",
	"vim.cursorStylePerMode.visualblock": "block-outline",
	"vim.cursorStylePerMode.visualline": "block-outline",
	"vim.easymotion": true,
	"vim.foldfix": true,
	"window.menuBarVisibility": "toggle",
	"workbench.colorTheme": "Catppuccin Mocha",
	"workbench.editor.enablePreviewFromQuickOpen": false,
	"workbench.iconTheme": "catppuccin-mocha",
	"workbench.sideBar.location": "right",
	"workbench.startupEditor": "none",
	"workbench.tips.enabled": false,
	"extensions.experimental.affinity": {
		"asvetliakov.vscode-neovim": 1
	}
}
